{
  "drivers": {
    "1": "ベビィマリオ",
    "2": "ベビィピーチ",
    "3": "ベビィデイジー",
    "4": "ベビィロゼッタ",
    "5": "ベビィルイージ",
    "6": "ノコノコ",
    "7": "ヘイホー",
    "8": "カロン",
    "9": "イギー",
    "10": "ラリー",
    "11": "レミー",
    "12": "ルドウィッグ",
    "13": "モートン",
    "14": "ロイ",
    "15": "ウェンディ",
    "16": "マリオ",
    "17": "ピーチ",
    "18": "ヨッシー",
    "19": "デイジー",
    "20": "キノピオ",
    "21": "キノピコ",
    "22": "ロゼッタ",
    "23": "ルイージ",
    "24": "キノピオ（ピットクルー）",
    "25": "あかヨッシー",
    "26": "あおヨッシー",
    "27": "ピンクヨッシー",
    "28": "きいろキノピオ（ピットクルー）",
    "29": "みずいろキノピオ（ピットクルー）",
    "30": "クッパ",
    "31": "ドンキーコング",
    "32": "ディディーコング",
    "33": "ジュゲム",
    "34": "クッパJr.",
    "35": "ワリオ",
    "36": "ワルイージ",
    "37": "キングテレサ",
    "38": "くろヘイホー",
    "39": "あかノコノコ（レース）",
    "40": "キャサリン",
    "41": "ピンクヘイホー",
    "42": "キャサリン（みずいろ）",
    "43": "ハンマーブロス",
    "44": "ブーメランブロス",
    "45": "アイスブロス",
    "46": "ファイアブロス",
    "47": "キャサリン（きいろ）",
    "48": "チョロプー",
    "49": "みどりヘイホー",
    "50": "あおノコノコ（レース）",
    "51": "キャサリン（あお）",
    "52": "むらさきノコノコ（レース）",
    "53": "みずいろヘイホー",
    "54": "メタルマリオ",
    "55": "キノピーチ",
    "56": "ポリーン",
    "57": "マリオ（バンドマン）",
    "58": "ピーチ（きもの）",
    "59": "マリオ（はかま）",
    "60": "ロゼッタ（ハロウィン）",
    "61": "ピーチ（バケーション）",
    "62": "マリオ（サンタ）",
    "63": "ピンクゴールドピーチ",
    "64": "デイジー（サンタ）",
    "65": "ヨッシー（トナカイ）",
    "66": "ポリーン（パーティ）",
    "67": "マリオ（はっぴ）",
    "68": "キノピオ（パーティ）",
    "69": "ピーチ（ウィンター）",
    "70": "ペンギンルイージ",
    "71": "アイスマリオ",
    "72": "ベビィピーチ（エンジェル）",
    "73": "ロゼッタ（オーロラ）",
    "74": "マリオ（クラシック）",
    "75": "ルイージ（クラシック）",
    "76": "ベビィロゼッタ（探偵）",
    "77": "ヨッシー（イースター）",
    "78": "くろヨッシー",
    "79": "ビルダーマリオ",
    "80": "ビルダーキノピオ",
    "81": "デイジー（フェアリー）",
    "82": "マリオ（コック）",
    "83": "ピーチ（ウェディング）",
    "84": "ロゼッタ（スイマー）",
    "85": "マリオ（スイマー）",
    "86": "キノピオ隊長",
    "87": "キノピコ（探検家）",
    "88": "デイジー（ゆかた）",
    "89": "マリオ（SFC）",
    "90": "マリオ（サンシャイン）",
    "91": "マリオ（ハロウィン）",
    "92": "ピーチ（ハロウィン）",
    "93": "ピーチ（探検家）",
    "94": "ビルダールイージ",
    "95": "ファイアロゼッタ",
    "96": "ルイージ（レーダーホーゼン）",
    "97": "ネコピーチ",
    "98": "ネコキノピオ",
    "99": "ポリーン（ローズ）",
    "100": "ペンギンキノピオ",
    "101": "マリオ（レーサー）",
    "102": "しろヨッシー",
    "103": "ベビィマリオ（コアラ）",
    "104": "ビルダーキノピコ",
    "105": "マリオ（ウェディング）",
    "106": "ルイージ（ペイント）",
    "107": "デイジー（スイマー）",
    "108": "マリオ（野球）",
    "109": "ピーチ（はっぴ）",
    "110": "ペンギンマリオ",
    "111": "ヨッシー（カンガルー）",
    "112": "タヌキマリオ",
    "113": "タヌキロゼッタ",
    "114": "マリオ（サテラビュー）",
    "115": "ペンギンキノピコ",
    "116": "ネコロゼッタ",
    "117": "ルイージ（バケーション）",
    "118": "マリオ（ゴルフ）",
    "119": "ルイージ（ゴルフ）",
    "120": "マリオ（パイロット）",
    "121": "マリオ（武者）",
    "122": "ピーチ（ゆかた）",
    "123": "ヨッシー（ゴールドエッグ）",
    "124": "ほねクッパ",
    "125": "キングテレサ（ルイージマンション）",
    "126": "ヘイホー（パティシエ）",
    "127": "ワルイージ（バスドライバー）",
    "128": "ゴールデンノコノコ（レース）",
    "129": "ワリオ（キャンプ）",
    "130": "カロン（ゴールド）",
    "131": "ファンキーコング",
    "132": "ディクシーコング",
    "133": "ほねクッパ（ゴールド）",
    "134": "ワリオ（ガンマン）",
    "135": "トッテン",
    "136": "クッパJr.（海賊）",
    "137": "ボムキング",
    "138": "ドンキーコングJr.（SFC）",
    "139": "ヘイホー（ゴールド）",
    "140": "キングテレサ（ゴールド）",
    "141": "クッパ（サンタ）",
    "142": "ジュゲム（パーティ）",
    "143": "キャサリン（くろ）",
    "144": "ヘイホー（にんじゃ）",
    "145": "ボムキング（ゴールド）",
    "146": "カメック",
    "147": "ワルイージ（ヴァンパイア）",
    "148": "ネコクッパ",
    "149": "ブル",
    "150": "ピンクヘイホー（にんじゃ）",
    "151": "キャサリン（しろ）",
    "152": "あかMiiスーツ",
    "153": "マリオMiiスーツ",
    "154": "ピーチMiiスーツ",
    "155": "キノピオMiiスーツ",
    "156": "ルイージMiiスーツ",
    "157": "ロゼッタMiiスーツ",
    "158": "ドンキーコングMiiスーツ",
    "159": "ブロンズMiiスーツ",
    "160": "シルバーMiiスーツ",
    "161": "ゴールドMiiスーツ",
    "162": "キングテレサMiiスーツ",
    "163": "ボムキングMiiスーツ",
    "164": "ヨッシーMiiスーツ",
    "165": "キャサリンMiiスーツ",
    "167": "ロゼッタ（フォーレンダム）",
    "168": "デイジー（ファーマー）",
    "169": "トッテンMiiスーツ",
    "170": "ドクターマリオ",
    "171": "ドクタールイージ",
    "172": "ワリオMiiスーツ",
    "173": "ドクターピーチ",
    "174": "ドクタークッパ",
    "175": "ハテナブロックMiiスーツ",
    "176": "ネコマリオ",
    "177": "ネコルイージ",
    "178": "ネコMiiスーツ",
    "179": "ロゼッタ（シェフ）",
    "180": "パティシエMiiスーツ",
    "181": "デイジー（タイバカンス）",
    "182": "ワンワンMiiスーツ",
    "183": "ボスパックン",
    "184": "ボスパックンMiiスーツ",
    "185": "デイジー（セーラー）",
    "186": "キノピコ（セーラー）",
    "187": "リフトンMiiスーツ",
    "188": "プクプクMiiスーツ",
    "189": "しろタヌキマリオ",
    "190": "アイスクリームMiiスーツ",
    "191": "ブル（ゴールド）",
    "192": "クッパMiiスーツ",
    "193": "ほねクッパMiiスーツ",
    "194": "ルイージ（ナイト）",
    "195": "クリボーMiiスーツ",
    "196": "ハンマーブロスMiiスーツ",
    "197": "マリオ（王様）",
    "198": "とりでMiiスーツ",
    "199": "しろMiiスーツ",
    "200": "あかキノピオ（ピットクルー）",
    "201": "ルイージ（コック）",
    "202": "みどりMiiスーツ",
    "203": "ボスパックン（ゴールド）",
    "204": "カロンMiiスーツ",
    "205": "オレンジヨッシー",
    "206": "きいろMiiスーツ",
    "207": "キツネルイージ",
    "208": "モーモーMiiスーツ",
    "209": "あおヘイホー",
    "210": "プーMiiスーツ",
    "211": "ラリー（ウィンター）",
    "212": "サンタMiiスーツ",
    "213": "トナカイMiiスーツ",
    "214": "みどりキノピオ（ピットクルー）",
    "215": "くろMiiスーツ",
    "217": "ピンクキノピオ（ピットクルー）",
    "218": "キノピオ（アストロノート）",
    "219": "キノピコ（アストロノート）",
    "220": "むらさきMiiスーツ",
    "221": "キャサリン（オレンジ）",
    "222": "グレートロアーMiiスーツ",
    "223": "みずいろヘイホー（探検家）",
    "224": "きいろヘイホー（探検家）",
    "225": "ブラウンMiiスーツ",
    "226": "しろヘイホー",
    "227": "パタテンテンMiiスーツ",
    "229": "ノコノコ（レース）",
    "230": "ガボンMiiスーツ",
    "231": "オレンジヘイホー",
    "232": "サンボMiiスーツ",
    "233": "みずいろヨッシー",
    "234": "ポチ",
    "235": "パックンフラワーMiiスーツ",
    "236": "キノピオ（ツーリスト）",
    "237": "あおMiiスーツ",
    "238": "イギーMiiスーツ",
    "239": "ラリーMiiスーツ",
    "240": "ルドウィッグMiiスーツ",
    "241": "ロイMiiスーツ",
    "242": "レミーMiiスーツ",
    "243": "モートンMiiスーツ",
    "244": "キャサリン（あか）",
    "245": "デイジーMiiスーツ",
    "246": "ピンクMiiスーツ",
    "247": "ルイージ（ゴールドナイト）",
    "248": "チョロプーMiiスーツ",
    "249": "ワルイージMiiスーツ",
    "250": "きいろヘイホー",
    "251": "ドンキーコング（戦士）",
    "252": "フィッシュボーンMiiスーツ",
    "253": "きみどりMiiスーツ",
    "254": "ポリーン（ウエスタン）",
    "255": "ハナチャン",
    "256": "ハナチャンMiiスーツ",
    "257": "きいろヨッシー",
    "258": "キノピコMiiスーツ",
    "259": "キャサリン（みどり）",
    "260": "ウェンディMiiスーツ",
    "261": "むらさきキノピオ（ピットクルー）",
    "262": "マリオ（スーツ）",
    "263": "オレンジMiiスーツ",
    "264": "ゲッソーMiiスーツ",
    "265": "ハナチャン（ゴールド）",
    "266": "みずいろMiiスーツ",
    "267": "ゴールドマリオ",
    "268": "クッパクラウンMiiスーツ"
  },
  "karts": {
    "1": "スケルトン",
    "2": "バースデーガール",
    "3": "マッシュ",
    "4": "ノコノコダッシュ",
    "5": "パタテンテン",
    "6": "あおパタテンテン",
    "7": "スーパープクプク",
    "8": "ピンクマッシュ",
    "9": "バースデーロゼッタ",
    "10": "キッズグリーン",
    "11": "ドライブキッズ",
    "12": "マグナムカート",
    "13": "マグナムサーチ",
    "14": "クッパシップ",
    "15": "スケルバギー",
    "16": "グレーシップ",
    "17": "スーパーサーチプクプク",
    "18": "Gフォース",
    "19": "ファンタジア",
    "20": "ヨッシーターボ",
    "21": "ジェットサイダー",
    "22": "スーパーゲッソー",
    "23": "ゴールデンゲッソー",
    "24": "ピアレス",
    "25": "Ｈ2Ｏ",
    "26": "オバキューム",
    "27": "ストリームライン",
    "28": "ホワイトピアレス",
    "29": "ダンガンダック",
    "30": "レッドストリーム",
    "31": "あかヨッシーターボ",
    "32": "コバルトセブン",
    "33": "レッドワン",
    "34": "モロキューカンバー",
    "35": "モンティーレ",
    "36": "きいろキャサリンターボ",
    "37": "エッグ・ワン",
    "38": "バースデーデイジー",
    "39": "スタンダード8レッド",
    "40": "スタンダード8グリーン",
    "41": "キューカンバー",
    "42": "ブルーピアレス",
    "43": "あおヨッシーターボ",
    "44": "ファイアホットロッド",
    "45": "タルポッポ",
    "46": "DKジャンボ",
    "47": "DKエレガント",
    "48": "クッパクラウン",
    "49": "ダーククラウン",
    "50": "パタパタウイング",
    "51": "キャサリンターボ",
    "52": "みずいろキャサリンターボ",
    "53": "バナナバギー",
    "54": "ジャングルカーゴ",
    "55": "あおキャサリンターボ",
    "56": "Bダッシュ",
    "57": "ブラックBダッシュ",
    "58": "イエローキャブ",
    "59": "エドッコ",
    "60": "かぶきダッシュ",
    "61": "ターボ・ワン",
    "62": "ターボ・ブラック",
    "63": "マッハクイーン",
    "64": "ブラッククイーン",
    "65": "トリックスター",
    "66": "ゴーストライド",
    "67": "パステルマカロン",
    "68": "キャロケット",
    "69": "クリスマッシュ",
    "70": "ワイルドスター",
    "71": "ラディッシュロケット",
    "72": "ライガーホットロッド",
    "73": "クリスマスガール",
    "74": "ダブルデッカー",
    "75": "ワイルドユニオン",
    "76": "レッドBダッシュ",
    "77": "ジングルベル",
    "78": "プラチナキャビン",
    "79": "ビビッドビデール",
    "80": "プリンスチャーム",
    "81": "スノーバキューム",
    "82": "Pウイング",
    "83": "リンリンゴー",
    "84": "オーロラピッド",
    "85": "イースターバニー",
    "86": "パワードーザー",
    "87": "ガタゴトロッコ",
    "88": "ワイルドブラック",
    "89": "こいのぼり",
    "90": "プリンセスコーチ",
    "91": "ローズクイーン",
    "92": "アオリンゴー",
    "93": "チョコマカロン",
    "94": "エッグ・ゴールド",
    "95": "スイートファンタジア",
    "96": "レッドキャビン",
    "97": "ピンクウイング",
    "98": "ハッピーライド",
    "99": "ブルーサイダー",
    "100": "ゴトゴトロッコ",
    "101": "ゴールドトロッコ",
    "102": "おまつりガール",
    "103": "くろかぶきダッシュ",
    "104": "8-bitスケルトン",
    "105": "ゴールドスケルトン",
    "106": "サーフライド",
    "107": "グレートホットロッド",
    "108": "ターボ・グリーン",
    "109": "スーパースター",
    "110": "ランランタン",
    "111": "ブラックパンプキン",
    "112": "たそがれぐも",
    "113": "スティールダイバー",
    "114": "キングスノーファング",
    "115": "ゴールドモービル",
    "116": "ドリーミーエッグ",
    "117": "ソーセージカート",
    "118": "アイアンキューカンバー",
    "119": "ネコクラシカル",
    "120": "ワイルドピンク",
    "121": "ローズキャビン",
    "122": "BダッシュMk.2",
    "123": "デカールストリーム",
    "124": "オレンジストリーム",
    "125": "しろヨッシーターボ",
    "126": "サクラサク",
    "127": "ジェットクルーザー",
    "128": "ハイパーホットロッド",
    "129": "ジャングルロード",
    "130": "ピンクドーザー",
    "131": "ロマンスデイモン",
    "132": "ロードペインター",
    "133": "イムティーラ",
    "134": "サニーサーフライド",
    "135": "トップバッター",
    "136": "クリーンナップ",
    "137": "アイスドーザー",
    "138": "グリーンデッカー",
    "139": "クロネコクラシカル",
    "140": "BダッシュMk.2レッド",
    "141": "BダッシュMk.2ピンク",
    "142": "BダッシュMk.2クラシック",
    "143": "BダッシュMk.2スカイ",
    "144": "BダッシュMk.2メタル",
    "145": "BダッシュMk.2クリーム",
    "146": "BダッシュMk.2グリーン",
    "147": "タヌキバギー",
    "148": "ランランタンゴールド",
    "149": "アストローダー",
    "150": "サンタクルーザー",
    "151": "ホワイトモービル",
    "152": "リンリンベル",
    "153": "スノーウイング",
    "154": "グレネコクラシカル",
    "155": "スーパースター2022",
    "156": "グレートロアー",
    "157": "ジュークライド",
    "158": "スニーカート",
    "159": "ワカバナナバギー",
    "160": "キューピッドアロー",
    "161": "ワイルドスラッガー",
    "162": "プロペライダー",
    "163": "ほうきぼし",
    "164": "マグマほうき",
    "165": "8-bitスケルトンイエロー",
    "166": "かちどき号",
    "167": "とどろき号",
    "168": "くろヨッシーターボ",
    "169": "ゴールドバニー",
    "170": "ビートデイモン",
    "171": "ブルースデイモン",
    "172": "ゴールドポッポ",
    "173": "ワルビデール",
    "174": "スノーモービル",
    "175": "サバイバルバギー",
    "176": "バナナマスター",
    "177": "ドクリンゴー",
    "178": "プクシュノーケル",
    "179": "ゴールドプクシュ",
    "180": "ゴールドプクプク",
    "181": "ダークバギー",
    "182": "キングクッパ",
    "183": "サバイバルブラウン",
    "184": "サンドランナー",
    "185": "パイレーツホージロー",
    "186": "シルバーマグナム",
    "187": "ばんがしら",
    "188": "DKマキシマム",
    "189": "ホージロー",
    "190": "キングブラック",
    "191": "スパイダッシュ",
    "192": "ブラックドーザー",
    "193": "パタエレクトロ",
    "194": "ゴーゴーペンギン",
    "195": "すくすくペンギン",
    "196": "アイスランナー",
    "197": "くろキャサリンターボ",
    "198": "パープルバニー",
    "199": "かえるまる",
    "200": "くれないまる",
    "201": "くらやみまる",
    "202": "メカメックほうき",
    "203": "キングシルバー",
    "204": "ブラックヴァンパイア",
    "205": "スパイダッシュレッド",
    "206": "サバイバルイエロー",
    "207": "サンドレッド",
    "208": "クリスマスシップ",
    "209": "クリスマスクラウン",
    "210": "トラビデール",
    "211": "ファーストバーガー",
    "212": "さくらまる",
    "213": "しろキャサリンターボ",
    "214": "チューリップガーデン",
    "215": "ドラゴンフライ",
    "216": "ファイアフライ",
    "217": "ダイコンロケット",
    "218": "ドクターカプセル",
    "219": "ブルーグリーンカプセル",
    "220": "シロビデール",
    "221": "ココナッツ・ワン",
    "222": "ピンクカプセル",
    "223": "グリーンイエローカプセル",
    "224": "クリームネコクラシカル",
    "225": "ぶーぶーカート",
    "226": "みどりネコクラシカル",
    "227": "ぶーぶーピンク",
    "228": "キッズゴールド",
    "229": "ホイップスイート",
    "230": "ホワイトソーセージ",
    "231": "トゥクトゥクライド",
    "232": "トロピカルトラック",
    "233": "ゴールドダック",
    "234": "ライトニングストリーム",
    "235": "フラワードッカン",
    "236": "フラワーデイモン",
    "237": "コーラルクルーザー",
    "238": "スイスイカー",
    "239": "アイスクリームバン",
    "240": "チョコバナナアイスバン",
    "241": "ストロベリーソフト",
    "242": "サバイバルレッド",
    "243": "ぶーぶーブラック",
    "244": "サンドブラック",
    "245": "ゴールドマグナム",
    "246": "シルバーアーマー",
    "247": "ゴールドカート",
    "248": "ゴールドデッカー",
    "249": "ブラックキャリッジ",
    "250": "ファストファイア",
    "251": "ファストグリーン",
    "252": "ホイップゴールド",
    "253": "わくわくビートル",
    "254": "ゴールドパンプキン",
    "255": "レッドヴァンパイア",
    "256": "オレンジヨッシーターボ",
    "257": "ファストブルー",
    "258": "イーグルアイ",
    "259": "ゴールドイーグル",
    "260": "ファイアイーグル",
    "261": "バケダヌキバギー",
    "262": "ジャングルゴールド",
    "263": "モーモーサバイバル",
    "264": "ファストピンク",
    "265": "ブラックスニーカート",
    "266": "ピンクスニーカート",
    "267": "ゴールドビデール",
    "268": "ピンクヨッシーターボ",
    "269": "ゴールドリンリン",
    "270": "ファストホリデー",
    "271": "ワイルドゴールド",
    "272": "パープルドーザー",
    "273": "レインボーキャビン",
    "274": "ゲッソーシャトル",
    "275": "ゴールドローダー",
    "276": "オレンジキャサリンターボ",
    "277": "オウゴンエドッコ",
    "278": "パイナップル・ワン",
    "279": "コトコトポット",
    "280": "スパイダッシュブルー",
    "281": "ゴールドカプセル",
    "282": "にじいろビートル",
    "283": "8-bitスケルトンゴールド",
    "284": "スケルレインボー",
    "285": "タイコドドン",
    "286": "サクラスター",
    "287": "こんじきまる",
    "288": "みずいろヨッシーターボ",
    "289": "イースターガール",
    "290": "かるがーも・ワン",
    "291": "ジャンボライナー",
    "292": "ゴールドペインター",
    "293": "シルバーガーデン",
    "294": "ブロンズキューカンバー",
    "295": "クリームクラシック",
    "296": "ブラックリンリン",
    "297": "ゴールドホージロー",
    "298": "カロンダッシュ",
    "299": "レッドラピッド",
    "300": "ピンクラピッド",
    "301": "グリーンラピッド",
    "302": "ゴールドラピッド",
    "303": "レッドGフォース",
    "304": "あかキャサリンターボ",
    "305": "ゴールドキューピッド",
    "306": "シルバーキューピッド",
    "307": "しろがね号",
    "308": "こんじき号",
    "309": "ブラックアーマー",
    "310": "ゴールドアーマー",
    "311": "ワルイージバギーMk.2",
    "312": "ウエスタンワゴン",
    "313": "ワンワンチャリオット",
    "314": "フィッシュボーンカート",
    "315": "フィッシュボーンゴールド",
    "316": "フラワーウエスタン",
    "317": "ハナチャン・ワン",
    "318": "ゴーストドッカン",
    "319": "ゴールドドッカン",
    "320": "きいろヨッシーターボ",
    "321": "イエローエクスプローラ",
    "322": "ブルーエクスプローラ",
    "323": "ゴールドダイバー",
    "324": "みどりキャサリンターボ",
    "325": "リフトンフロート",
    "326": "がらがらパープル",
    "327": "ぶーぶーゴールド",
    "328": "ゴールデンスラッガー",
    "329": "ファイアダック",
    "330": "チョコミントソフト",
    "331": "ソフトクリームゴールド",
    "332": "ハナチャンバギー",
    "333": "キングクラウン",
    "334": "ゴールドキング",
    "335": "BダッシュMk.2ブラック",
    "336": "ゴールドBダッシュ"
  },
  "gliders": {
    "1": "スーパーカイト",
    "2": "パラシュート",
    "3": "パラフォイル",
    "4": "かみひこうき",
    "5": "しずくカイト",
    "6": "BBIAパラフォイル",
    "7": "キャラおりがみひこうき",
    "8": "ピストンカイト",
    "9": "パックンパラフォイル",
    "10": "ピーチパラソル",
    "11": "フラワーカイト",
    "12": "ばんがさ",
    "13": "サンダーばんがさ",
    "14": "ガーベラフラワー",
    "15": "8-bitジャンプマリオ",
    "16": "ハテナブロック",
    "17": "チェックリボン",
    "18": "カラグライダー",
    "19": "8-bitジャンプルイージ",
    "20": "キノコカイト",
    "21": "ボムへいパラフォイル",
    "22": "こうらパラシュート",
    "23": "ワリオカイト",
    "24": "ワルイージカイト",
    "25": "バナナパラフォイル",
    "26": "エメラルドフラワー",
    "27": "ゴールドカイト",
    "28": "フライハイヤー",
    "29": "むらさきばんがさ",
    "30": "おおだこ",
    "31": "イチゴクレープカイト",
    "32": "トリコロールカイト",
    "33": "スターシューター",
    "34": "ロイヤルパラシュート",
    "35": "リボンカイト",
    "36": "ユニオンパラフォイル",
    "37": "プレゼントボックス",
    "38": "ニューイヤー2020",
    "39": "ネンガカイト",
    "40": "はなびパラシュート",
    "41": "おりづる",
    "42": "スノーパラソル",
    "43": "ふぶきバルーン",
    "44": "スイートボックス",
    "45": "ハートバルーン",
    "46": "チコシュート",
    "47": "レインボーシューター",
    "48": "イースターエッグ",
    "49": "安全第一カイト",
    "50": "ヒナギクフラワー",
    "51": "ピンクゴールドかみひこうき",
    "52": "ユーヤケチョーチョ",
    "53": "チョコドーナツ",
    "54": "きんづる",
    "55": "バナナクレープカイト",
    "56": "イチゴドーナツ",
    "57": "シルバーベル",
    "58": "ゴールドハート",
    "59": "スイスイマンタ",
    "60": "トレジャーマップ",
    "61": "バタフライウイング",
    "62": "グレートセイル",
    "63": "おまつりウイング",
    "64": "8-bitスター",
    "65": "スーパーマリオカートカイト",
    "66": "スペシャルシューター",
    "67": "スパイダーカイト",
    "68": "ゆうやけバルーン",
    "69": "シルバーシューター",
    "70": "ホーリーベル",
    "71": "ナナイロアゲハ",
    "72": "プラネットカイト",
    "73": "ニューイヤー2021",
    "74": "キンガカイト",
    "75": "にくきゅうバルーン",
    "76": "みけパラフォイル",
    "77": "ブラックセイル",
    "78": "シルバーマンタ",
    "79": "ローズパラソル",
    "80": "スノークリスタル",
    "81": "8-bitファイアフラワー",
    "82": "サーフマスター",
    "83": "ピンクスターセイル",
    "84": "くろにくきゅう",
    "85": "8-bitキラー",
    "86": "キラキラティアラ",
    "87": "フライングイーゼル",
    "88": "サニーサーフマスター",
    "89": "みずたまマンタ",
    "90": "ホームスタジアム",
    "91": "ゴールドスタジアム",
    "92": "はるかぜ",
    "93": "ゆかたリボン",
    "94": "シルバーサーフマスター",
    "95": "シップハンドル",
    "96": "タヌキパラフォイル",
    "97": "タヌキパラフォイルゴールド",
    "98": "マジックパラソル",
    "99": "8-bitスーパーキノコ",
    "100": "メテオバルーン",
    "101": "ピンクゴールドメテオ",
    "102": "プラネットリボン",
    "103": "キャンドルサービス",
    "104": "パタペンギンゴールド",
    "105": "オーロラバルーン",
    "106": "ニューイヤー2022",
    "107": "クロネコパラフォイル",
    "108": "ネコパラフォイル",
    "109": "にくきゅうゴールド",
    "110": "シャイニーパラソル",
    "111": "ルイージパラフォイル",
    "112": "ダブルウイング",
    "113": "グライドカウンター",
    "114": "マリオひげカイト",
    "115": "ルイージひげカイト",
    "116": "おりかぶと",
    "117": "よざくらかぶと",
    "118": "バサバサカイト",
    "119": "キラシュート",
    "120": "もくもくバルーン",
    "121": "あまぐもバルーン",
    "122": "バサウイング",
    "123": "ゴールドバサバサ",
    "124": "バナナパタレット",
    "125": "トロピカルカイト",
    "126": "ドラゴンウイング",
    "127": "ゲッソーパタレット",
    "128": "トッテンブレラ",
    "129": "おめんやさん",
    "130": "ほねクッパばんがさ",
    "131": "パタペンギン",
    "132": "イースターバルーン",
    "133": "ムササビノジュツ",
    "134": "ドリームグライダー",
    "135": "ヴァンパイアウイング",
    "136": "ゴールデンウイング",
    "137": "ワリオひげカイト",
    "138": "ワルイージひげカイト",
    "139": "パタウイング",
    "140": "マツニベビィはなふだ",
    "141": "ウメニタマゴはなふだ",
    "142": "サクラニピーチはなふだ",
    "143": "フジニタルはなふだ",
    "144": "アヤメニゲッソーはなふだ",
    "145": "ボタンニマリオはなふだ",
    "146": "ハギニキラーはなふだ",
    "147": "ススキニテレサはなふだ",
    "148": "キクニパックンはなふだ",
    "149": "モミジニクリボーはなふだ",
    "150": "ヤナギニマリオはなふだ",
    "151": "キリニクッパはなふだ",
    "152": "カラゴールド",
    "153": "グリーンふたば",
    "154": "むしめがね",
    "155": "アンティークブック",
    "156": "ピンクむしめがね",
    "157": "デビトパーズ",
    "158": "みどりネコパラフォイル",
    "159": "クリームにくきゅう",
    "160": "キャンドルケーキ",
    "161": "バタープレッツェル",
    "162": "チューリップコサージュ",
    "163": "アジアンブレラ",
    "164": "8-bit 1UPキノコ",
    "165": "パックンバルーン",
    "166": "ヒデンノジュツ",
    "167": "トロピカルバルーン",
    "168": "ファイアマンタ",
    "169": "のうりょうウイング",
    "170": "バニラ＆チョコアイス",
    "171": "マリオひげアイスカイト",
    "172": "ミント＆ベリーアイス",
    "173": "ようがんメテオ",
    "174": "ブラックシューター",
    "175": "ルイージひげシルバーカイト",
    "176": "マリオのぼうしバルーン",
    "177": "ルイージのぼうしバルーン",
    "178": "テレサおめん",
    "179": "ゴールドバルーン",
    "180": "しらなみかぶと",
    "181": "チョコプレッツェル",
    "182": "サクサクサンド",
    "183": "シルバーキャンドル",
    "184": "オータムリーブス",
    "185": "みけにくきゅう",
    "186": "エンジェルガーネット",
    "187": "ホーリーシルバー",
    "188": "ビルダーメットバルーン",
    "189": "チョロボンおおだこ",
    "190": "ビルダーメットバルーンゴールド",
    "191": "ニューイヤー2023",
    "192": "ゴールドメテオ",
    "193": "レインボーハイヤー",
    "194": "ステルスプレーン",
    "195": "アジアンブレラゴールド",
    "196": "エンジェルダイヤモンド",
    "197": "ゴールドキャンドル",
    "198": "トッテンパラシュート",
    "199": "8-bitスーパーカイト",
    "200": "8-bitカイトゴールド",
    "201": "8-bitブロック",
    "202": "8-bitクリボー",
    "203": "テレサおめんゴールド",
    "204": "イースターリボン",
    "205": "ヨッシーのクッキーカイト",
    "206": "スペシャルフラワーカイト",
    "207": "ゴールドプレーン",
    "208": "ゴールドチューリップ",
    "209": "ゴールドマンタ",
    "210": "ロイばんがさ",
    "211": "チェッカーレッド",
    "212": "チェッカーピンク",
    "213": "チェッカーグリーン",
    "214": "チェッカーゴールド",
    "215": "こんじきかぶと",
    "216": "ゴールドベル",
    "217": "ゴールドティアラ",
    "218": "レッドエムブレム",
    "219": "グリーンエムブレム",
    "220": "マリオブラザーズパラフォイル",
    "221": "レインボーパタウイング",
    "222": "パタウイングゴールド",
    "223": "モザイクシューター",
    "224": "ハナチャンパラシュート",
    "225": "パックンバルーンゴールド",
    "226": "ジェリーフィッシュート",
    "227": "ウェーブセイル",
    "228": "リフトンセイル",
    "229": "バブルバルーン",
    "230": "ゴルフキャップMカイト",
    "231": "ゴルフキャップLカイト",
    "232": "ゴルフキャップMカイトゴールド",
    "233": "バナナ＆メロンアイス",
    "234": "ホラー＆ハロウィンアイス",
    "235": "ゴールドチョコアイス",
    "236": "ロイヤルフラッシュ",
    "237": "レインボーベル",
    "238": "ゴールドマリオのぼうしバルーン"
  },
  "courses": {
    "1": "ニューヨーク ドリーム",
    "2": "ニューヨーク ドリーム R",
    "3": "ニューヨーク ドリーム X",
    "4": "ニューヨーク ドリーム RX",
    "5": "ニューヨーク ドリーム 2",
    "6": "ニューヨーク ドリーム 2R",
    "7": "ニューヨーク ドリーム 2X",
    "8": "ニューヨーク ドリーム 2RX",
    "9": "ニューヨーク ドリーム 3",
    "10": "ニューヨーク ドリーム 3R",
    "11": "ニューヨーク ドリーム 3X",
    "12": "ニューヨーク ドリーム 3RX",
    "13": "ニューヨーク ドリーム 4",
    "14": "ニューヨーク ドリーム 4R",
    "15": "ニューヨーク ドリーム 4X",
    "16": "ニューヨーク ドリーム 4RX",
    "17": "トーキョー スクランブル",
    "18": "トーキョー スクランブル R",
    "19": "トーキョー スクランブル X",
    "20": "トーキョー スクランブル RX",
    "21": "トーキョー スクランブル 2",
    "22": "トーキョー スクランブル 2R",
    "23": "トーキョー スクランブル 2X",
    "24": "トーキョー スクランブル 2RX",
    "25": "トーキョー スクランブル 3",
    "26": "トーキョー スクランブル 3R",
    "27": "トーキョー スクランブル 3X",
    "28": "トーキョー スクランブル 3RX",
    "29": "トーキョー スクランブル 4",
    "30": "トーキョー スクランブル 4R",
    "31": "トーキョー スクランブル 4X",
    "32": "トーキョー スクランブル 4RX",
    "33": "パリ プロムナード",
    "34": "パリ プロムナード R",
    "35": "パリ プロムナード X",
    "36": "パリ プロムナード RX",
    "37": "パリ プロムナード 2",
    "38": "パリ プロムナード 2R",
    "39": "パリ プロムナード 2X",
    "40": "パリ プロムナード 2RX",
    "41": "パリ プロムナード 3",
    "42": "パリ プロムナード 3R",
    "43": "パリ プロムナード 3X",
    "44": "パリ プロムナード 3RX",
    "45": "ロンドン アベニュー",
    "46": "ロンドン アベニュー R",
    "47": "ロンドン アベニュー X",
    "48": "ロンドン アベニュー RX",
    "49": "ロンドン アベニュー 2",
    "50": "ロンドン アベニュー 2R",
    "51": "ロンドン アベニュー 2X",
    "52": "ロンドン アベニュー 2RX",
    "53": "ロンドン アベニュー 3",
    "54": "ロンドン アベニュー 3R",
    "55": "ロンドン アベニュー 3X",
    "56": "ロンドン アベニュー 3RX",
    "57": "バンクーバー バレー",
    "58": "バンクーバー バレー R",
    "59": "バンクーバー バレー X",
    "60": "バンクーバー バレー RX",
    "61": "バンクーバー バレー 2",
    "62": "バンクーバー バレー 2R",
    "63": "バンクーバー バレー 2X",
    "64": "バンクーバー バレー 2RX",
    "65": "ロサンゼルス コースト",
    "66": "ロサンゼルス コースト R",
    "67": "ロサンゼルス コースト X",
    "68": "ロサンゼルス コースト RX",
    "69": "ロサンゼルス コースト 2",
    "70": "ロサンゼルス コースト 2R",
    "71": "ロサンゼルス コースト 2X",
    "72": "ロサンゼルス コースト 2RX",
    "73": "ロサンゼルス コースト 3",
    "74": "ロサンゼルス コースト 3R",
    "75": "ロサンゼルス コースト 3X",
    "76": "ロサンゼルス コースト 3RX",
    "77": "メリーメリーマウンテン",
    "78": "メリーメリーマウンテン R",
    "79": "メリーメリーマウンテン X",
    "80": "メリーメリーマウンテン RX",
    "81": "ベルリン シュトラーセ 2",
    "82": "ベルリン シュトラーセ 2R",
    "83": "ベルリン シュトラーセ 2X",
    "84": "ベルリン シュトラーセ 2RX",
    "85": "ニンニンドージョー",
    "86": "ニンニンドージョー R",
    "87": "ニンニンドージョー X",
    "88": "ニンニンドージョー RX",
    "89": "シドニー サンシャイン",
    "90": "シドニー サンシャイン R",
    "91": "シドニー サンシャイン X",
    "92": "シドニー サンシャイン RX",
    "93": "シドニー サンシャイン 2",
    "94": "シドニー サンシャイン 2R",
    "95": "シドニー サンシャイン 2X",
    "96": "シドニー サンシャイン 2RX",
    "97": "シンガポール スプラッシュ",
    "98": "シンガポール スプラッシュ R",
    "99": "シンガポール スプラッシュ X",
    "100": "シンガポール スプラッシュ RX",
    "101": "RMX マリオサーキット 1",
    "102": "RMX マリオサーキット 1R",
    "103": "RMX マリオサーキット 1X",
    "104": "RMX マリオサーキット 1RX",
    "105": "RMX チョコレーとう 1",
    "106": "RMX チョコレーとう 1R",
    "107": "RMX チョコレーとう 1X",
    "108": "RMX チョコレーとう 1RX",
    "109": "RMX レインボーロード 1",
    "110": "RMX レインボーロード 1R",
    "111": "RMX レインボーロード 1X",
    "112": "RMX レインボーロード 1RX",
    "113": "RMX レインボーロード 2",
    "114": "RMX レインボーロード 2R",
    "115": "RMX レインボーロード 2X",
    "116": "RMX レインボーロード 2RX",
    "117": "RMX チョコレーとう 2",
    "118": "RMX チョコレーとう 2R",
    "119": "RMX チョコレーとう 2X",
    "120": "RMX バニラレイク 1",
    "121": "RMX バニラレイク 1R",
    "122": "RMX バニラレイク 1X",
    "123": "RMX おばけぬま 1",
    "124": "RMX おばけぬま 1R",
    "125": "RMX おばけぬま 1X",
    "126": "RMX おばけぬま 1RX",
    "127": "SFC マリオサーキット 1",
    "128": "SFC マリオサーキット 1R",
    "129": "SFC マリオサーキット 1X",
    "130": "SFC マリオサーキット 1RX",
    "131": "SFC ドーナツへいや 1",
    "132": "SFC ドーナツへいや 1R",
    "133": "SFC ドーナツへいや 1X",
    "134": "SFC ドーナツへいや 1RX",
    "135": "SFC おばけぬま 1",
    "136": "SFC おばけぬま 1R",
    "137": "SFC おばけぬま 1X",
    "138": "SFC おばけぬま 1RX",
    "139": "SFC マリオサーキット 2",
    "140": "SFC マリオサーキット 2R",
    "141": "SFC マリオサーキット 2X",
    "142": "SFC マリオサーキット 2RX",
    "143": "SFC チョコレーとう 1",
    "144": "SFC チョコレーとう 1R",
    "145": "SFC チョコレーとう 1X",
    "146": "SFC チョコレーとう 1RX",
    "147": "SFC ドーナツへいや 2",
    "148": "SFC ドーナツへいや 2R",
    "149": "SFC ドーナツへいや 2X",
    "150": "SFC ドーナツへいや 2RX",
    "151": "SFC マリオサーキット 3",
    "152": "SFC マリオサーキット 3R",
    "153": "SFC マリオサーキット 3X",
    "154": "SFC マリオサーキット 3RX",
    "155": "SFC チョコレーとう 2",
    "156": "SFC チョコレーとう 2R",
    "157": "SFC チョコレーとう 2X",
    "158": "SFC チョコレーとう 2RX",
    "159": "SFC バニラレイク 1",
    "160": "SFC バニラレイク 1R",
    "161": "SFC バニラレイク 1X",
    "162": "SFC バニラレイク 1RX",
    "163": "SFC ノコノコビーチ 2",
    "164": "SFC ノコノコビーチ 2R",
    "165": "SFC ノコノコビーチ 2X",
    "166": "SFC バニラレイク 2",
    "167": "SFC バニラレイク 2R",
    "168": "SFC バニラレイク 2X",
    "169": "SFC レインボーロード",
    "170": "SFC レインボーロード R",
    "171": "SFC レインボーロード X",
    "172": "SFC レインボーロード RX",
    "173": "N64 ノコノコビーチ",
    "174": "N64 ノコノコビーチ R",
    "175": "N64 ノコノコビーチ X",
    "176": "N64 ノコノコビーチ RX",
    "177": "N64 カラカラさばく",
    "178": "N64 カラカラさばく R",
    "179": "N64 カラカラさばく X",
    "180": "N64 カラカラさばく RX",
    "181": "N64 カラカラさばく 2",
    "182": "N64 カラカラさばく 2R",
    "183": "N64 カラカラさばく 2X",
    "184": "N64 カラカラさばく 2RX",
    "185": "N64 フラッペスノーランド",
    "186": "N64 フラッペスノーランド R",
    "187": "N64 フラッペスノーランド X",
    "188": "N64 フラッペスノーランド RX",
    "189": "N64 チョコマウンテン",
    "190": "N64 チョコマウンテン R",
    "191": "N64 チョコマウンテン X",
    "192": "N64 チョコマウンテン RX",
    "193": "N64 ピーチサーキット",
    "194": "N64 ピーチサーキット R",
    "195": "N64 ピーチサーキット X",
    "196": "N64 ピーチサーキット RX",
    "197": "N64 ヨッシーバレー",
    "198": "N64 ヨッシーバレー R",
    "199": "N64 ヨッシーバレー X",
    "200": "GBA クッパキャッスル 1",
    "201": "GBA クッパキャッスル 1R",
    "202": "GBA クッパキャッスル 1X",
    "203": "GBA クッパキャッスル 1RX",
    "204": "GBA クッパキャッスル 2",
    "205": "GBA クッパキャッスル 2R",
    "206": "GBA クッパキャッスル 2X",
    "207": "GBA クッパキャッスル 2RX",
    "208": "GBA スカイガーデン",
    "209": "GBA スカイガーデン R",
    "210": "GBA スカイガーデン X",
    "211": "GBA プクプクアイランド",
    "212": "GBA プクプクアイランド R",
    "213": "GBA プクプクアイランド X",
    "214": "GBA サンセットこうや",
    "215": "GBA サンセットこうや R",
    "216": "GBA サンセットこうや X",
    "217": "GBA サンセットこうや RX",
    "218": "GC ヨッシーサーキット",
    "219": "GC ヨッシーサーキット R",
    "220": "GC ヨッシーサーキット X",
    "221": "GC ヨッシーサーキット RX",
    "222": "GC ディノディノジャングル",
    "223": "GC ディノディノジャングル R",
    "224": "GC ディノディノジャングル X",
    "225": "GC ディノディノジャングル RX",
    "226": "DS ルイージマンション",
    "227": "DS ルイージマンション R",
    "228": "DS ルイージマンション X",
    "229": "DS ルイージマンション RX",
    "230": "DS ワルイージピンボール",
    "231": "DS ワルイージピンボール R",
    "232": "DS ワルイージピンボール X",
    "233": "DS ワルイージピンボール RX",
    "234": "DS DKスノーマウンテン",
    "235": "DS DKスノーマウンテン R",
    "236": "DS DKスノーマウンテン X",
    "237": "DS DKスノーマウンテン RX",
    "238": "DS キラーシップ",
    "239": "DS キラーシップ R",
    "240": "DS キラーシップ X",
    "241": "DS キラーシップ RX",
    "242": "Wii キノコキャニオン",
    "243": "Wii キノコキャニオン R",
    "244": "Wii キノコキャニオン X",
    "245": "Wii DKスノーボードクロス",
    "246": "Wii DKスノーボードクロス R",
    "247": "Wii DKスノーボードクロス X",
    "248": "Wii メイプルツリーハウス",
    "249": "Wii メイプルツリーハウス R",
    "250": "Wii メイプルツリーハウス X",
    "251": "Wii メイプルツリーハウス RX",
    "252": "3DS キノピオサーキット",
    "253": "3DS キノピオサーキット R",
    "254": "3DS キノピオサーキット X",
    "255": "3DS キノピオサーキット RX",
    "256": "3DS デイジーヒルズ",
    "257": "3DS デイジーヒルズ R",
    "258": "3DS デイジーヒルズ X",
    "259": "3DS デイジーヒルズ RX",
    "260": "3DS プクプクラグーン",
    "261": "3DS プクプクラグーン R",
    "262": "3DS プクプクラグーン X",
    "263": "3DS プクプクラグーン RX",
    "264": "3DS ヘイホーカーニバル",
    "265": "3DS ヘイホーカーニバル R",
    "266": "3DS ヘイホーカーニバル X",
    "267": "3DS ヘイホーカーニバル RX",
    "268": "3DS マリオサーキット",
    "269": "3DS マリオサーキット R",
    "270": "3DS マリオサーキット X",
    "271": "3DS マリオサーキット RX",
    "272": "3DS ロックロックマウンテン",
    "273": "3DS ロックロックマウンテン R",
    "274": "3DS ロックロックマウンテン X",
    "275": "3DS ワリオシップ",
    "276": "3DS ワリオシップ R",
    "277": "3DS ワリオシップ X",
    "278": "3DS ワリオシップ RX",
    "279": "3DS ネオクッパシティ",
    "280": "3DS ネオクッパシティ R",
    "281": "3DS ネオクッパシティ X",
    "282": "3DS ネオクッパシティ RX",
    "283": "3DS ロゼッタプラネット",
    "284": "3DS ロゼッタプラネット R",
    "285": "3DS ロゼッタプラネット X",
    "286": "3DS ロゼッタプラネット RX",
    "287": "3DS クッパキャッスル",
    "288": "3DS クッパキャッスル R",
    "289": "3DS クッパキャッスル X",
    "290": "3DS クッパキャッスル RX",
    "291": "3DS レインボーロード",
    "292": "3DS レインボーロード R",
    "293": "3DS レインボーロード X",
    "294": "3DS レインボーロード RX",
    "295": "アムステルダム ブルーム",
    "296": "アムステルダム ブルーム R",
    "297": "アムステルダム ブルーム X",
    "298": "アムステルダム ブルーム RX",
    "299": "Wii ココナッツモール",
    "300": "Wii ココナッツモール R",
    "301": "Wii ココナッツモール X",
    "302": "Wii ノコノコみさき",
    "303": "Wii ノコノコみさき R",
    "304": "Wii ノコノコみさき X",
    "305": "GC ベビィパーク X",
    "306": "ベルリン シュトラーセ",
    "307": "ベルリン シュトラーセ R",
    "308": "ベルリン シュトラーセ X",
    "309": "アムステルダム ブルーム 2",
    "310": "アムステルダム ブルーム 2R",
    "311": "アムステルダム ブルーム 2X",
    "312": "バンコク ラッシュ",
    "313": "バンコク ラッシュ R",
    "314": "バンコク ラッシュ X",
    "315": "バンコク ラッシュ RX",
    "316": "GC ベビィパーク",
    "317": "GC ベビィパーク R",
    "318": "3DS パックンスライダー",
    "319": "3DS パックンスライダー R",
    "320": "3DS パックンスライダー X",
    "321": "シンガポール スプラッシュ 2",
    "322": "シンガポール スプラッシュ 2R",
    "323": "シンガポール スプラッシュ 2X",
    "324": "GC デイジークルーザー",
    "325": "GC デイジークルーザー R",
    "326": "GC デイジークルーザー X",
    "327": "アイスビルディング",
    "328": "アイスビルディング R",
    "329": "アイスビルディング X",
    "330": "アイスビルディング RX",
    "331": "RMX クッパキャッスル 1",
    "332": "RMX クッパキャッスル 1R",
    "333": "RMX クッパキャッスル 1X",
    "334": "GBA クッパキャッスル 3",
    "335": "GBA クッパキャッスル 3R",
    "336": "GBA クッパキャッスル 3X",
    "337": "SFC おばけぬま 2",
    "338": "SFC おばけぬま 2R",
    "339": "SFC おばけぬま 2X",
    "340": "N64 ルイージサーキット",
    "341": "N64 ルイージサーキット R",
    "342": "N64 ルイージサーキット X",
    "343": "シンガポール スプラッシュ 2RX",
    "344": "アムステルダム ブルーム 2RX",
    "345": "ベルリン シュトラーセ 3",
    "346": "ベルリン シュトラーセ 3R",
    "347": "ベルリン シュトラーセ 3X",
    "348": "シドニー サンシャイン 3",
    "349": "シドニー サンシャイン 3R",
    "350": "シドニー サンシャイン 3X",
    "367": "RMX ドーナツへいや 1",
    "368": "RMX ドーナツへいや 1R",
    "369": "RMX ドーナツへいや 1X",
    "370": "RMX ドーナツへいや 1RX",
    "371": "GBA バトルコース 1",
    "372": "GC クッキーランド",
    "373": "DS ゆうやみハウス",
    "374": "GBA テレサレイク",
    "375": "SFC ドーナツへいや 3RX",
    "376": "SFC ドーナツへいや 3",
    "377": "GBA テレサレイク RX",
    "378": "SFC おばけぬま 2RX",
    "379": "SFC ドーナツへいや 3R",
    "380": "GBA テレサレイク X",
    "381": "GBA テレサレイク R",
    "382": "SFC ドーナツへいや 3X",
    "383": "ベルリン シュトラーセ RX",
    "384": "バンクーバー バレー 3",
    "385": "バンクーバー バレー 3RX",
    "386": "バンクーバー バレー 3X",
    "387": "バンクーバー バレー 3R",
    "388": "ニューヨーク ドリーム B",
    "389": "GC DKマウンテン",
    "390": "GBA リバーサイドパーク R",
    "391": "GBA リバーサイドパーク X",
    "392": "GC DKマウンテン RX",
    "393": "GBA リバーサイドパーク",
    "394": "GC DKマウンテン R",
    "395": "GBA リバーサイドパーク RX",
    "396": "GC DKマウンテン X",
    "397": "DS ピーチガーデン",
    "398": "DS ピーチガーデン R",
    "399": "DS ピーチガーデン X",
    "400": "DS ピーチガーデン RX",
    "401": "アムステルダム ブルーム 3",
    "402": "アムステルダム ブルーム 3RX",
    "403": "アムステルダム ブルーム 3X",
    "404": "アムステルダム ブルーム 3R",
    "413": "GBA スノーランド",
    "414": "GBA スノーランド R",
    "415": "GBA スノーランド X",
    "416": "GBA スノーランド RX",
    "417": "Wii DKスノーボードクロス RX",
    "418": "GBA スカイガーデン RX",
    "419": "GBA プクプクアイランド RX",
    "420": "GBA クッパキャッスル 3RX",
    "421": "GC ベビィパーク RX",
    "422": "Wii ノコノコみさき RX",
    "423": "3DS パックンスライダー RX",
    "424": "Wii レインボーロード",
    "425": "Wii レインボーロード RX",
    "426": "Wii レインボーロード X",
    "427": "Wii レインボーロード R",
    "428": "シンガポール スプラッシュ 3",
    "429": "バンコク ラッシュ 2R",
    "430": "シンガポール スプラッシュ 3RX",
    "431": "バンコク ラッシュ 3X",
    "432": "バンコク ラッシュ 3",
    "433": "シンガポール スプラッシュ 3R",
    "434": "シンガポール スプラッシュ 3X",
    "435": "バンコク ラッシュ 2RX",
    "436": "バンコク ラッシュ 2",
    "437": "バンコク ラッシュ 3R",
    "438": "バンコク ラッシュ 2X",
    "439": "バンコク ラッシュ 3RX",
    "440": "パックンしんでん",
    "441": "パックンしんでん 2",
    "442": "パックンしんでん 2R",
    "443": "パックンしんでん RX",
    "444": "パックンしんでん 2X",
    "445": "パックンしんでん X",
    "446": "パックンしんでん R",
    "447": "パックンしんでん 2RX",
    "448": "DS キノコリッジウェイ",
    "449": "DS キノコリッジウェイ RX",
    "450": "Wii ココナッツモール RX",
    "451": "DS キノコリッジウェイ X",
    "452": "DS キノコリッジウェイ R",
    "453": "RMX チョコレーとう 2RX",
    "454": "N64 ルイージサーキット RX",
    "455": "DS マリオサーキット",
    "456": "DS マリオサーキット RX",
    "457": "DS マリオサーキット R",
    "458": "DS マリオサーキット X",
    "459": "Wii カラカラいせき",
    "460": "Wii カラカラいせき R",
    "461": "Wii カラカラいせき X",
    "462": "Wii カラカラいせき RX",
    "463": "N64 ヨッシーバレー RX",
    "464": "ヨッシーアイランド",
    "465": "GBA ヨッシーさばく",
    "466": "GBA ヨッシーさばく RX",
    "467": "ヨッシーアイランド RX",
    "468": "ヨッシーアイランド R",
    "469": "ヨッシーアイランド X",
    "470": "GBA ヨッシーさばく R",
    "471": "GBA ヨッシーさばく X",
    "472": "アテネ ポリス",
    "473": "アテネ ポリス 2X",
    "474": "アテネ ポリス RX",
    "475": "アテネ ポリス R",
    "476": "パリ プロムナード B",
    "477": "アテネ ポリス 2R",
    "478": "アテネ ポリス 2RX",
    "479": "アテネ ポリス X",
    "480": "アテネ ポリス 2",
    "481": "SFC クッパじょう 3",
    "482": "GBA クッパキャッスル 4",
    "483": "RMX クッパキャッスル 1RX",
    "484": "SFC クッパじょう 3RX",
    "485": "GBA クッパキャッスル 4R",
    "486": "SFC クッパじょう 3R",
    "487": "SFC クッパじょう 3X",
    "488": "GC キノコブリッジ R",
    "489": "Wii キノコキャニオン RX",
    "490": "パックンしんでん 3",
    "491": "パックンしんでん 3RX",
    "492": "GC キノコブリッジ X",
    "493": "パックンしんでん 3X",
    "494": "GC キノコブリッジ RX",
    "495": "GC キノコブリッジ",
    "496": "パックンしんでん 3R",
    "497": "GBA ピーチサーキット",
    "498": "GBA ピーチサーキット R",
    "499": "GBA ピーチサーキット X",
    "500": "GBA ピーチサーキット RX",
    "501": "Wii デイジーサーキット",
    "502": "Wii デイジーサーキット R",
    "503": "Wii デイジーサーキット X",
    "504": "Wii デイジーサーキット RX",
    "505": "N64 マリオサーキット",
    "506": "N64 マリオサーキット RX",
    "507": "GBA ルイージサーキット X",
    "508": "GC ワルイージスタジアム X",
    "509": "GC ワルイージスタジアム",
    "510": "GBA ルイージサーキット",
    "511": "N64 マリオサーキット R",
    "512": "GBA ルイージサーキット RX",
    "513": "GC ワルイージスタジアム RX",
    "514": "N64 マリオサーキット X",
    "515": "GBA ルイージサーキット R",
    "516": "GC ワルイージスタジアム R",
    "517": "ローマ アバンティ",
    "518": "ローマ アバンティ 2R",
    "519": "Wii ムーンリッジ&ハイウェイ",
    "520": "Wii ムーンリッジ&ハイウェイ R",
    "521": "ローマ アバンティ 2X",
    "522": "ローマ アバンティ RX",
    "523": "Wii ムーンリッジ&ハイウェイ RX",
    "524": "Wii ムーンリッジ&ハイウェイ X",
    "525": "ローマ アバンティ 2",
    "526": "ローマ アバンティ R",
    "527": "ローマ アバンティ 2RX",
    "528": "ローマ アバンティ X",
    "529": "ドカンキャニオン",
    "530": "ドカンキャニオン RX",
    "531": "ドカンキャニオン X",
    "532": "ドカンキャニオン R",
    "533": "GBA レイクサイドパーク",
    "534": "SFC ノコノコビーチ 2RX",
    "535": "GC デイジークルーザー RX",
    "536": "GBA レイクサイドパーク X",
    "537": "GBA レイクサイドパーク R",
    "538": "GBA レイクサイドパーク RX",
    "543": "シャボンロード",
    "544": "シャボンロード R",
    "545": "シャボンロード X",
    "546": "シャボンロード RX",
    "547": "マドリード グランデ",
    "548": "マドリード グランデ RX",
    "549": "マドリード グランデ 2X",
    "550": "マドリード グランデ R",
    "551": "RMX バニラレイク 2",
    "552": "RMX バニラレイク 2RX",
    "553": "RMX バニラレイク 2R",
    "554": "RMX バニラレイク 2X",
    "555": "SFC バニラレイク 2RX",
    "556": "マドリード グランデ 2",
    "557": "マドリード グランデ 2R",
    "558": "マドリード グランデ X",
    "559": "マドリード グランデ 2RX",
    "560": "RMX バニラレイク 1RX",
    "561": "アテネ ポリス 3",
    "562": "シドニー サンシャイン 3RX",
    "563": "マドリード グランデ 3R",
    "564": "アテネ ポリス 3X",
    "565": "マドリード グランデ 3",
    "566": "アテネ ポリス 3R",
    "567": "マドリード グランデ 3X",
    "568": "ベルリン シュトラーセ 3RX",
    "569": "ローマ アバンティ 3",
    "570": "ローマ アバンティ 3R",
    "571": "ローマ アバンティ 3X",
    "572": "アテネ ポリス 3RX",
    "573": "マドリード グランデ 3RX",
    "574": "ローマ アバンティ 3RX"
  },
  "drivers_skills": {
    "1": "ブーメランフラワー",
    "2": "シャボン",
    "3": "トリプルミドリこうら",
    "4": "ダブルボムへい",
    "5": "ダッシュリング",
    "6": "ジャンボバナナ",
    "7": "ハート",
    "8": "ファイアフラワー",
    "9": "ヨッシーのたまご",
    "10": "トリプルダッシュキノコ",
    "11": "アイスフラワー",
    "12": "クッパこうら",
    "13": "バナナバレル",
    "14": "ラッキー7",
    "15": "ボムへいキャノン",
    "16": "キャサリンのたまご",
    "17": "ハンマー",
    "18": "キノコたいほう",
    "19": "コインボックス",
    "20": "スーパーベル",
    "21": "トリプルバナナ",
    "22": "スーパーこのは",
    "23": "ギガボムへい",
    "24": "カプセル"
  },
  "karts_skills": {
    "0": "ダッシュプレート プラス",
    "1": "ジャンプアクション プラス",
    "2": "ミニターボ プラス",
    "3": "スリップストリーム プラス",
    "4": "ロケットスタート プラス"
  },
  "gliders_skills": {
    "1": "ダッシュキノコ プラス",
    "2": "ゲッソー プラス",
    "3": "ミドリこうら プラス",
    "4": "バナナ プラス",
    "5": "きょだいキノコ プラス",
    "6": "アカこうら プラス",
    "7": "サンダー プラス",
    "8": "スーパークラクション プラス",
    "9": "コイン プラス",
    "10": "ボムへい プラス",
    "11": "キラー プラス"
  },
  "tours": {
    "1": "ニューヨークツアー",
    "2": "トーキョーツアー",
    "3": "ハロウィンツアー",
    "4": "パリツアー",
    "5": "ウィンターツアー",
    "6": "ロンドンツアー",
    "7": "2019 ファイナルツアー",
    "8": "ニューイヤーツアー",
    "9": "アイスツアー",
    "10": "バレンタインツアー",
    "11": "バンクーバーツアー",
    "12": "マリオブラザーズツアー",
    "13": "ベビィロゼッタツアー",
    "14": "ハンマーブロスツアー",
    "15": "ヨッシーツアー",
    "16": "エクストリームツアー",
    "17": "フラワーツアー",
    "18": "ジャングルツアー",
    "19": "クッキングツアー",
    "20": "ピーチツアー",
    "21": "マリンツアー",
    "22": "探検ツアー",
    "23": "ウェスタンツアー",
    "24": "パイレーツツアー",
    "25": "夏祭りツアー",
    "26": "スーパーマリオカートツアー",
    "27": "ロサンゼルスツアー",
    "28": "1st アニバーサリーツアー",
    "29": "ハロウィンツアー",
    "30": "サンセットツアー",
    "31": "マリオVSルイージツアー",
    "32": "ウィンターツアー",
    "33": "ロゼッタツアー",
    "34": "2021ニューイヤーツアー",
    "35": "ベルリンツアー",
    "36": "ネコツアー",
    "37": "ピーチVSデイジーツアー",
    "38": "スノーツアー",
    "39": "マリオツアー",
    "40": "ヨッシーツアー",
    "41": "忍者ツアー",
    "42": "シドニーツアー",
    "43": "クッパVSドンキーコングツアー",
    "44": "エクストリームツアー",
    "45": "ウェディングツアー",
    "46": "パリツアー",
    "47": "サマーツアー",
    "48": "ロサンゼルスツアー",
    "49": "マリオVSピーチツアー",
    "50": "ひんやりツアー",
    "51": "カメックツアー",
    "52": "シドニーツアー",
    "53": "2nd アニバーサリーツアー",
    "54": "オータムツアー",
    "55": "ハロウィンツアー",
    "56": "キノピオVSキノピコツアー",
    "57": "スペースツアー",
    "58": "ホリデーツアー",
    "59": "ペンギンツアー",
    "60": "2022 ニューイヤーツアー",
    "61": "シンガポールツアー",
    "62": "ワリオVSワルイージツアー",
    "63": "ロサンゼルスツアー",
    "64": "スカイツアー",
    "65": "Miiツアー",
    "66": "武者ツアー",
    "67": "ヨッシーツアー",
    "68": "アムステルダムツアー",
    "69": "ドクターツアー",
    "70": "ピーチVSクッパツアー",
    "71": "ネコツアー",
    "72": "メトロポリタンツアー",
    "73": "バンコクツアー",
    "74": "パックンツアー",
    "75": "オーシャンツアー",
    "76": "アイスツアー",
    "77": "クッパツアー",
    "78": "マリオVSルイージツアー",
    "79": "アニバーサリーツアー",
    "80": "バトルツアー",
    "81": "ハロウィンツアー",
    "82": "オータムツアー",
    "83": "アニマルツアー",
    "84": "ピーチVSクッパツアー",
    "85": "ホリデーツアー",
    "86": "ニューイヤーツアー",
    "87": "スペースツアー",
    "88": "ウィンターツアー",
    "89": "探検ツアー",
    "90": "ドクターツアー",
    "91": "マリオツアー",
    "92": "忍者ツアー",
    "93": "ヨッシーツアー",
    "94": "スプリングツアー",
    "95": "クッパツアー",
    "96": "Miiツアー",
    "97": "プリンセスツアー",
    "99": "ナイトツアー",
    "100": "ドカンツアー",
    "101": "サンシャインツアー",
    "102": "バカンスツアー",
    "103": "サマーツアー",
    "104": "アイスツアー"
  }
}